<font>
  <info face="score_white" size="16" bold="0" italic="0" charset="" unicode="" stretchH="100" smooth="1" aa="1" padding="2,2,2,2" spacing="0,0" outline="0"/>
  <common lineHeight="16" base="16" scaleW="38" scaleH="146" pages="1" packed="0"/>
  <pages>
    <page id="0" file="score_white.png"/>
  </pages>
  <chars count="10">
    <char id="48" x="2" y="2" width="16" height="16" xoffset="0" yoffset="0" xadvance="15" page="0" chnl="15"/>
    <char id="49" x="2" y="20" width="14" height="16" xoffset="2" yoffset="0" xadvance="15" page="0" chnl="15"/>
    <char id="50" x="2" y="38" width="16" height="16" xoffset="0" yoffset="0" xadvance="15" page="0" chnl="15"/>
    <char id="51" x="18" y="20" width="16" height="16" xoffset="0" yoffset="0" xadvance="15" page="0" chnl="15"/>
    <char id="52" x="20" y="2" width="16" height="16" xoffset="0" yoffset="0" xadvance="15" page="0" chnl="15"/>
    <char id="53" x="2" y="56" width="16" height="16" xoffset="0" yoffset="0" xadvance="15" page="0" chnl="15"/>
    <char id="54" x="2" y="74" width="16" height="16" xoffset="0" yoffset="0" xadvance="15" page="0" chnl="15"/>
    <char id="55" x="2" y="92" width="16" height="16" xoffset="0" yoffset="0" xadvance="15" page="0" chnl="15"/>
    <char id="56" x="2" y="110" width="16" height="16" xoffset="0" yoffset="0" xadvance="15" page="0" chnl="15"/>
    <char id="57" x="2" y="128" width="16" height="16" xoffset="0" yoffset="0" xadvance="15" page="0" chnl="15"/>
    <char id="32" x="0" y="0" width="0" height="0" xoffset="0" yoffset="0" xadvance="15" page="0" chnl="15"/>
  </chars>
</font>